HW_02_Kumar_Bhavish.utf8
…
  dt_model_weather2 <- train(RainTomorrow ~ ., data = weather_forecast_dt_trainData,method = "rpart",metric = "Accuracy",
                       tuneLength = 8,control = rpart.control(minsplit =as.numeric(gs[i,"minsplit"]), minbucket = as.numeric(gs[i,"minbucket"]),       maxdepth = as.numeric(gs[i,"maxdepth"])))
  accuracy_values<- c(accuracy_values,max(dt_model_weather2$results$Accuracy))

}

Displaying the Accuracy of 64 Decision Tree Models for different combinations of the hyperparameters minsplit, maxdepth and minbucket ordered in descending order by accuracy.

Since Accuracy is a good measure of model performance We can see that the first row in the below table with the below shown minsplit, maxdepth and minbucket values has the best accuracy and hence can be considered the best model. But since the accuracy values are approximately equal, we will use a simpler model with lower maxdepth to avoid overfitting and produce low variance estimates. Based on Occams Razor principle, we need to chose a simpler model, amongst the models that produce the same accuracy

gs$accuracy <- accuracy_values
gs[order(-gs$accuracy),]

## # A tibble: 64 x 4
##    minsplit maxdepth minbucket accuracy
##       <dbl>    <dbl>     <dbl>    <dbl>
##  1       15       15         4    0.760
##  2       20       30         6    0.760
##  3       10       25         5    0.760
##  4        5       25         6    0.760
##  5        5       30         5    0.760
##  6       10       20         3    0.760
##  7       10       25         4    0.760
##  8        5       25         3    0.760
##  9       20       15         5    0.760
## 10       20       30         4    0.760
## #  with 54 more rows
…
