Week 2: Data Pre-Processing and Exploration
…
Random Data Sampling without Replacement

mpg_sample_index <- sample(1:nrow(mpg),
                           size = nrow(mpg) * 0.3,
                           replace = F)
prop.table(table(mpg[mpg_sample_index, "drv"]))

## 
##         4         f         r 
## 0.4285714 0.4571429 0.1142857

mpg[mpg_sample_index, ]

## # A tibble: 70 x 12
##    manufacturer model displ  year   cyl trans drv     cty   hwy fl    class
##    <fct>        <fct> <dbl> <int> <int> <fct> <fct> <int> <dbl> <fct> <fct>
##  1 dodge        dako~   4.7  2008     8 auto~ 4        14    19 r     pick~
##  2 nissan       maxi~   3    1999     6 auto~ f        18    26 r     mids~
##  3 volkswagen   gti     2    1999     4 auto~ f        19    26 r     comp~
##  4 volkswagen   pass~   2    2008     4 manu~ f        21    29 p     mids~
##  5 chevrolet    corv~   7    2008     8 manu~ r        15    24 p     2sea~
##  6 chevrolet    corv~   6.2  2008     8 manu~ r        16    26 p     2sea~
##  7 toyota       camry   2.2  1999     4 manu~ f        21    29 r     mids~
##  8 audi         a4 q~   3.1  2008     6 manu~ 4        15    25 p     comp~
##  9 dodge        dako~   5.2  1999     8 auto~ 4        11    15 r     pick~
## 10 dodge        cara~   2.4  1999     4 auto~ f        18    24 r     mini~
## # ... with 60 more rows, and 1 more variable: displ_grp <fct>
…
